ID: 32820
Name: 中正紀念堂 Chiang Kai-Shek Memorial Hall
Point: (25.03541084, 121.520140171)
UserID: 43518852 - (23.139548, 116.412758), (22.350681, 113.526341), (22.301534, 113.553295), (22.350232, 113.526307), 
UserID: 362829316 - (25.042576, 121.525868), (25.068423, 121.529876), (25.078861, 121.538422), (25.090963, 121.546694), 
UserID: 398499419 - (24.647282, 121.245961), (23.850939, 121.436998), (24.738605, 121.299715), (24.225528, 120.894516), 
UserID: 194633538 - (25.061283, 121.488252), (1.342446, 103.807054), (35.664703, 139.747650), (7.511463, 102.186827), 
UserID: 517367420 - (25.012618, 121.562053), (22.625077, 120.288654), (25.885361, 119.122949), 
UserID: 268152805 - (27.698916, 49.537739), (40.357169, -116.174320), (38.849338, -116.336699), (36.667534, -115.693088), 
UserID: 13022019 - (25.060041, 121.543543), (9.950256, 122.926585), (4.616989, 108.165497), (14.606016, 120.975110), 
UserID: 496920352 - (25.038271, 121.537373), (24.475093, 121.099190), (25.034695, 121.471994), (24.733314, 121.308166), 
UserID: 292880370 - (24.497856, 121.375093), (27.473887, 125.229441), (24.227282, 121.346113), 
UserID: 230963830 - (25.039635, 121.506220), (-3.468861, 108.781483), (2.730951, 102.222884), (3.149343, 101.644864), 
UserID: 22141406 - (22.962815, 121.834612), (38.145505, 12.134783), (13.197634, 121.460875), (14.485267, 121.009230), 
UserID: 259322884 - (25.035411, 121.520140), (24.569427, 121.374330), (25.032934, 121.293643), (25.030859, 121.329311), 
UserID: 357832982 - (14.116776, 111.649716), (25.037888, 121.552222), (20.640184, 117.571714), (-2.450315, 104.788863), 
UserID: 451605692 - (25.039237, 121.445976), (25.013287, 121.522308), (25.104867, 121.679552), 
UserID: 22462581 - (25.051437, 121.471089), (32.108716, 126.782741), (35.750420, 139.850918), (38.601513, 140.358023), 
UserID: 354555980 - (25.054516, 121.481965), (25.059435, 121.472687), (23.925040, 120.627011), (23.832482, 120.494173), 
UserID: 316529632 - (25.042737, 121.504798), (25.032298, 121.491128), (25.006251, 121.435034), (24.584160, 120.913468), 
UserID: 473413144 - (24.570806, 121.530724), (25.066232, 121.529478), 
UserID: 344341397 - (24.887662, 121.528300), 
UserID: 378319755 - (25.036756, 121.544195), 
UserID: 271024005 - (29.384183, 121.451040), (34.371454, 63.914291), (35.916284, -77.763930), (40.294588, -74.724506), 
UserID: 43107260 - (25.735405, 121.426984), (25.042108, 121.519677), (43.682775, -79.451264), (43.701955, -79.366084), 
UserID: 490353411 - (27.195275, 124.575109), (38.400675, 138.695004), (34.714480, 135.629671), (35.423475, 137.390714), 
UserID: 1286775454 - (25.073620, 121.529371), 
UserID: 353824903 - (25.052863, 121.505148), (24.593917, 121.104002), (23.681868, 120.523171), (24.271516, 120.742303), 
UserID: 303974648 - (25.038112, 121.525096), (25.022961, 121.512009), (24.822911, 121.327787), (24.020647, 120.599199), 
UserID: 38270958 - (25.035411, 121.520140), (25.023498, 121.381788), 
UserID: 242704922 - (29.971874, 129.287157), (35.020857, 137.096298), (34.785645, 136.481653), (38.247110, 138.617246), 
UserID: 17364597 - (25.041091, 121.500487), (34.817509, 135.433461), (35.376155, 129.123673), (35.378228, 128.969365), 
UserID: 2952144 - (25.045107, 121.530358), (14.547396, 120.995510), (12.060320, 122.446149), (11.069064, 115.201936), 
UserID: 323624358 - (19.922328, 121.223759), 
UserID: 262293684 - (25.036545, 121.537660), 
UserID: 323629395 - (24.649504, 121.543840), (24.180752, 120.655595), (24.110463, 120.701242), (24.090922, 120.664135), 
UserID: 520462944 - (24.998300, 121.391696), (31.601609, 85.589673), (24.968196, 121.307247), (24.904590, 121.505094), 
UserID: 374587828 - (25.052299, 121.531315), (25.076208, 121.520286), (25.076645, 121.523575), 
UserID: 343638565 - (24.981665, 121.569974), (25.060037, 121.509487), (25.057319, 121.504377), (25.050072, 121.553366), 
UserID: 18398947 - (26.806363, 122.161631), (37.563162, 126.935186), (37.560798, 126.941087), (37.563746, 126.948020), 
UserID: 539578781 - (9.279812, 114.097192), (-6.237610, 106.793618), (-6.237849, 106.790106), (-6.242871, 106.793046), 
UserID: 292311685 - (24.063255, 120.981013), (22.655318, 120.313708), (22.643043, 120.333205), 
UserID: 249097135 - (1.768994, 103.719113), (1.317269, 103.801679), (1.311139, 103.816236), (22.833313, 60.149071), 
UserID: 32402202 - (25.064320, 121.542166), (41.735616, -87.894492), (39.637339, -65.591718), (41.844021, -87.796240), 
UserID: 1445475285 - (25.048645, 121.537664), 
UserID: 1052232 - (32.646582, 134.497493), (35.680734, 139.840839), (35.732965, 139.678854), (35.725966, 139.695828), 
UserID: 574530473 - (25.044927, 121.498012), (23.126390, 113.280845), (23.138639, 113.320919), (23.143497, 113.301277), 
UserID: 529054822 - (25.035411, 121.520140), 
UserID: 1294060208 - (-6.177649, 106.772939), (-3.915438, 105.883950), (-5.821768, 114.510285), 
UserID: 270270002 - (14.976161, 118.964614), (30.448482, 51.039165), (47.645763, 2.156309), (40.903099, -26.642168), 
UserID: 1453811175 - (25.085299, 121.508219), 
UserID: 440507011 - (25.883354, 121.392584), (24.707396, 88.008740), (59.141378, 73.397833), (58.008914, 68.652412), 
UserID: 204512296 - (24.645256, 121.259558), 
UserID: 1288756637 - (32.651793, 94.191658), (50.473793, 30.518283), 
UserID: 289153693 - (25.098412, 121.514283), (25.116908, 121.508718), (25.098755, 121.519837), 
UserID: 1382023636 - (25.053628, 121.482684), (25.057540, 121.460730), 
UserID: 459662635 - (24.957493, 121.348503), (18.799338, 98.980512), (18.846833, 98.968410), (17.801527, 99.142388), 
UserID: 1199132113 - (25.029560, 121.554748), (47.476618, 92.574772), (54.974948, 82.903285), 
UserID: 7596586 - (3.194846, 111.248359), (-20.807044, 127.789588), (-12.489280, 114.487254), (-37.826760, 144.970100), 
UserID: 604373925 - (26.325262, 87.326482), (27.054365, 68.279119), (33.996068, -117.847291), (33.991886, -117.837651), 
UserID: 359359677 - (-0.532627, 115.099133), (-37.704151, 144.677352), (-37.786021, 144.986155), (-17.957560, 121.686909), 
UserID: 1401049313 - (-6.141558, 106.861360), (25.065499, 121.543666), 
UserID: 7968423 - (23.022676, 120.855728), (4.737542, 114.559493), (4.193201, 110.502236), (4.878417, 114.846502), 
UserID: 9530217 - (25.072004, 121.518548), (25.079503, 121.520813), (25.131040, 121.514048), (27.359150, -82.547893), 
UserID: 1439441025 - (24.889509, 121.326873), 
UserID: 14474611 - (33.017735, 135.115387), (25.039429, 121.518388), (25.056103, 121.603997), (16.205075, 103.008662), 
UserID: 228224631 - (-7.272828, 112.723244), (21.091211, 120.162793), (-7.275144, 112.716507), 
UserID: 315578131 - (9.119610, 112.577286), (2.484613, 102.514587), (2.541153, 102.589902), (3.069004, 101.607514), 
UserID: 206427186 - (34.785575, 38.191852), (11.227871, 85.710470), (16.354917, -5.025245), (29.809174, 109.476995), 
UserID: 451999352 - (11.642148, 115.434499), (0.576469, 106.808315), (5.063202, 109.999869), 
UserID: 316329473 - (42.270217, 55.676568), (43.602905, -61.909404), 
UserID: 44714798 - (25.055411, 121.632971), (16.462380, 112.612967), (10.342883, 106.149161), (10.753344, 106.657200), 
UserID: 647805416 - (25.053080, 121.439338), 
UserID: 179634525 - (25.043328, 121.554760), (25.007958, 121.603524), (25.062939, 121.565368), 
UserID: 360460142 - (-6.250122, 106.748233), (24.546070, 121.268750), (-6.215183, 106.740966), (-6.226087, 106.767405), 
UserID: 440020755 - (8.501873, 112.350960), (12.376782, 113.079644), (8.019275, 110.450533), (-27.451165, 153.049194), 
UserID: 1162856243 - (20.034692, 116.293125), (3.590393, 98.651147), (32.082192, 123.879447), 
UserID: 1157715159 - (35.665642, 140.021303), (33.706678, 132.359795), (33.115333, 130.469298), (35.682488, 139.853561), 
UserID: 36031563 - (13.141229, 71.904730), (-23.688282, -46.563218), (-19.241520, -47.342177), (-23.860353, -46.412549), 
UserID: 393034393 - (25.035411, 121.520140), 
UserID: 946874 - (24.829899, 121.451718), (25.020385, 121.539760), (25.060215, 121.610424), (25.656275, 121.543274), 
UserID: 2301448 - (25.061014, 121.533899), (25.062494, 121.564891), (25.046198, 121.539648), (25.057773, 121.538108), 
UserID: 340183719 - (31.672193, 131.558879), (35.617222, 139.690719), (35.363712, 139.369267), (35.464384, 139.526790), 
UserID: 934942051 - (24.495856, 119.501136), (22.921762, 113.541027), (23.103892, 113.298656), 
UserID: 15618243 - (25.010994, 121.457473), (25.034092, 121.518098), (25.035831, 121.531888), (25.053445, 121.532573), 
UserID: 195241715 - (13.620429, 115.435566), (1.306924, 103.898517), (1.305182, 103.891197), (-1.457342, 105.718459), 
UserID: 412438970 - (4.693659, 106.369788), (1.316491, 103.853409), (1.310272, 103.848029), 
UserID: 287897596 - (20.336833, 63.234756), (25.040419, 121.543992), (48.850098, 2.348458), (49.867877, 0.144604), 
UserID: 283538069 - (25.046444, 121.545031), (25.087266, 121.518715), (25.070586, 121.518678), 
UserID: 988496480 - (25.035411, 121.520140), 
UserID: 247201976 - (24.586316, 120.589560), 
UserID: 339988545 - (24.091015, 119.515978), (22.442849, 113.847827), (22.556169, 113.888912), 
UserID: 191620910 - (5.777485, 107.059075), (30.552011, 121.117678), (-36.887329, 174.757931), (12.882050, 79.132386), 
UserID: 1028338 - (25.024384, 121.486911), 
UserID: 282720514 - (25.035411, 121.520140), 
UserID: 6468143 - (24.881279, 121.608996), (25.039614, 121.513684), (25.074109, 121.524432), (25.036585, 121.532633), 
UserID: 1218605985 - (13.738734, 100.557875), (24.483019, 121.200295), (13.661907, 100.586105), (13.762492, 100.561635), 
UserID: 210838994 - (13.179959, 63.310805), (9.814923, 91.769969), (36.037185, 35.622234), (-0.648120, 86.272527), 
UserID: 335285325 - (37.481987, 127.296311), (37.427116, 127.035462), (37.444294, 127.052834), 
UserID: 768499695 - (14.589825, 120.978829), (14.661162, 121.019035), (14.694986, 120.997261), (14.629873, 121.022487), 
UserID: 1296991523 - (32.241773, 23.223052), (27.049154, 123.669907), (42.454579, -76.478772), 
UserID: 1037252490 - (25.059206, 121.623001), (25.075542, 121.586778), (25.070355, 121.610460), (25.072364, 121.611694), 
UserID: 183740099 - (22.731861, 113.816092), (22.567128, 121.114765), (22.643001, 113.891758), (22.701810, 113.841601), 
UserID: 1354531264 - (43.482827, 5.454171), (18.835425, 91.279752), (38.949074, 31.935911), 
UserID: 401019610 - (-3.259259, 108.567623), (-6.882730, 107.615559), (25.033740, 121.456161), 
UserID: 144396606 - (14.594242, 121.059616), (18.772592, 121.247439), (14.592257, 121.059891), (14.588791, 121.053636), 
UserID: 44328243 - (-7.272003, 112.768998), (-7.276697, 112.788760), 
UserID: 6261959 - (14.597823, 121.024314), (15.736844, 121.074882), (-6.963062, 109.316439), (14.564317, 121.049764), 
UserID: 311224550 - (-7.757130, 115.048582), 
UserID: 18315711 - (-20.022116, 119.389782), (40.649097, 26.026379), (-17.105109, 137.950978), (-37.827992, 144.990367), 
UserID: 523768641 - (23.005955, 113.389064), (23.812473, 121.383570), (22.798915, 113.586387), (39.531635, -96.265768), 
UserID: 484684439 - (24.258850, 121.344975), (25.089289, 121.474947), 
UserID: 271073277 - (30.480589, 93.753970), (18.326792, 117.560501), 
UserID: 487165145 - (25.041255, 121.537823), (25.036956, 121.531093), (25.045083, 121.505744), (24.870938, 121.654915), 
UserID: 606234360 - (29.332697, 71.765454), (33.551245, -117.792151), (33.708284, -117.869470), 
UserID: 438312567 - (25.112177, 121.724315), (24.981852, 121.800393), (25.044941, 121.589229), 
UserID: 492408688 - (1.288049, 103.844525), (13.159093, 112.624990), (1.292337, 103.847400), (1.307321, 103.852682), 
UserID: 4085788 - (11.872169, 98.997967), (1.297167, 103.832386), (11.669715, 104.832625), (-22.985736, -43.297892), 
UserID: 313261360 - (35.372948, 137.878152), (53.419599, 25.120037), 
UserID: 287766732 - (-6.181543, 106.781492), (-6.191387, 106.805937), (1.303654, 103.858261), (-6.201415, 106.801574), 
UserID: 225331189 - (36.004567, -120.444800), (25.038525, 121.527529), (34.045494, -118.236201), (37.397569, -121.847697), 
UserID: 203619739 - (-5.139190, 119.418640), (13.638319, 115.961944), (-7.016553, 116.018325), (-5.144898, 119.414999), 
UserID: 1319623 - (4.920649, 103.841179), (1.304127, 103.846115), (1.439326, 103.795590), (14.144799, 113.293363), 
UserID: 281243026 - (34.431883, -57.084284), (23.414337, 117.097588), 
UserID: 49242379 - (14.650098, 121.069528), (14.646496, 121.060022), (19.858215, 121.235042), (9.869733, 124.181369), 
UserID: 305941546 - (20.160200, 117.579858), (0.526828, 101.417462), 
UserID: 56204336 - (1.307136, 103.882208), (1.322922, 103.835986), (1.354077, 103.889224), (1.331506, 103.871176), 
UserID: 52038445 - (39.051346, 117.304943), (26.454264, 121.102398), (22.720586, 113.659011), 
UserID: 23171623 - (14.301684, 121.410638), (14.561919, 121.247896), (15.392132, 121.390034), (14.370289, 121.382765), 
UserID: 214227475 - (13.729224, 100.557550), (13.878185, 100.558024), (13.758259, 100.537259), (13.708121, 100.579034), 
UserID: 190826882 - (22.305083, 114.183697), (24.533730, 121.399487), 
UserID: 643991549 - (24.349155, 121.309132), (22.318629, 121.073382), 
UserID: 204443315 - (24.973246, 121.578860), (26.399781, 112.730422), 
UserID: 534098315 - (25.061211, 121.517973), (25.076183, 121.502502), (25.056687, 121.512097), (25.056323, 121.495733), 
UserID: 30584702 - (16.341547, 121.126575), (-33.839613, 150.998444), (14.605184, 121.045211), 
UserID: 53315034 - (7.524497, 106.541628), (20.687831, 112.612664), (24.421631, 120.732199), 
UserID: 430255859 - (36.615913, -121.885938), (25.080549, 121.505472), (25.069973, 121.524456), (25.077240, 121.534838), 
UserID: 390938716 - (10.290997, 110.508548), (1.506919, 103.820971), 
UserID: 452594165 - (56.427948, 10.187875), (56.173221, 10.174013), (44.317300, 41.824469), 
UserID: 22697831 - (23.568368, 79.669269), (31.726686, 110.262991), (24.461909, 118.121251), (24.050461, 117.315905), 
UserID: 293252490 - (25.101553, 121.517904), (25.077234, 121.515056), (-6.823714, 107.396198), 
UserID: 21149655 - (25.651524, 84.706032), (51.511386, -0.135910), (14.563118, 121.045807), (11.697524, 102.439211), 
UserID: 863963916 - (25.059855, 121.492061), (25.049160, 121.505095), (25.062532, 121.489560), 
UserID: 1318054 - (14.626026, 121.070627), (14.625715, 121.061326), (14.507867, 121.039857), (14.603825, 121.034732), 
UserID: 1340958624 - (34.257477, 70.033187), (37.498088, 126.992046), (37.531340, 127.385843), 
UserID: 297515169 - (29.535510, 103.552664), (29.558991, 103.564436), (37.785404, 125.879764), (39.959488, 116.337060), 
UserID: 391354594 - (30.596131, 83.615482), (36.352074, 73.488292), (46.302832, 35.448910), (51.918401, 57.167979), 
UserID: 38067479 - (35.534488, 134.178799), (35.501713, 139.665397), (35.744292, 139.839517), (35.674449, 139.754553), 
UserID: 6780112 - (3.168664, 101.676151), (3.154393, 101.637234), (-6.294412, 112.430217), (2.971504, 102.676630), 
UserID: 233000568 - (25.009557, 121.494030), 
UserID: 762258163 - (31.210471, 117.704491), (22.158166, 113.558770), (23.291107, 116.293926), (25.049685, 121.519995), 
UserID: 290421431 - (22.727269, 113.720620), (23.305938, 114.189481), (10.383057, 114.069414), (23.026823, 113.607550), 
UserID: 1209335550 - (-22.952311, -43.189018), (-22.938175, -43.198916), (5.943739, 29.129121), 
UserID: 254516724 - (34.148653, -119.096255), (34.594619, 137.918270), 
UserID: 42828620 - (47.593633, -122.163506), (47.184189, -122.299813), (47.507137, -122.029668), (47.493368, -122.015743), 
UserID: 640455212 - (49.662734, 18.686725), (27.248894, 111.129144), (15.536318, 114.460105), (37.329686, 128.296154), 
UserID: 7638495 - (1.283564, 103.836954), (8.746040, 88.570732), (-31.971521, 115.875393), (1.305911, 103.865325), 
UserID: 2585201 - (27.953228, 109.598249), 
UserID: 1053703364 - (24.980868, 121.559355), (24.942553, 121.496058), (25.024285, 121.545837), 
UserID: 454993486 - (25.020481, 121.559479), (24.957670, 121.451218), (25.012424, 121.566777), (25.039358, 121.554623), 
UserID: 24397753 - (25.040352, 121.546056), (25.051240, 121.543626), 
UserID: 336108462 - (14.331542, 121.045434), (17.715599, 121.152154), (13.663841, 121.375423), (14.556178, 121.000015), 
UserID: 234012273 - (23.862076, 118.701519), (25.030574, 121.548156), (25.087743, 121.564208), (23.797212, 120.594547), 
UserID: 208354059 - (-7.630184, 113.180530), (-7.282440, 112.701228), (-8.267777, 114.420084), (-7.281228, 112.698211), 
UserID: 14346281 - (-6.169526, 106.823673), (-12.219012, 33.622801), (-6.164363, 106.761085), 
UserID: 1072915868 - (24.964200, 121.307352), 
UserID: 610221181 - (29.208508, 103.400414), (24.312984, 120.678817), (24.574629, 121.214787), (37.837898, -117.877339), 
UserID: 502477707 - (25.032217, 121.562959), (25.034561, 121.560680), (25.046322, 121.550097), (25.116059, 121.516720), 
UserID: 24838744 - (30.304256, 120.139295), (29.498807, 118.811461), (33.179368, 119.007602), (30.266723, 120.077138), 
UserID: 589764845 - (24.987839, 121.255820), (24.946027, 121.472982), (25.058719, 121.515723), (25.134999, 121.740602), 
UserID: 6280814 - (22.608098, 114.330645), (22.552834, 114.083462), (22.538518, 114.006738), (23.081346, 120.567144), 
UserID: 321003874 - (24.717978, 121.549639), (25.037224, 121.519540), (25.036229, 121.517232), (24.637401, 121.231813), 
UserID: 184440670 - (24.144069, 120.685225), (23.833646, 120.866580), (24.508323, 121.296352), (25.044791, 121.525504), 
UserID: 263684269 - (35.693899, 139.823722), (24.368070, 120.856095), (25.003070, 121.467983), (24.597090, 121.127126), 
UserID: 38165893 - (23.005821, 119.526946), (24.148820, 120.763349), (5.615323, 111.286736), (-7.425379, 113.751008), 
UserID: 15184481 - (33.175416, 86.725092), (25.069628, 121.516001), (51.100177, 4.409582), 
UserID: 3769191 - (15.987662, 111.063989), (22.296669, 114.221305), (22.280249, 114.185315), (22.257202, 114.163295), 
UserID: 201345869 - (31.220696, 121.471092), (31.220677, 121.462771), (31.221670, 121.457390), (26.273309, 121.545146), 
UserID: 996258269 - (30.448940, 124.287797), (37.507731, 126.942465), 
UserID: 34005034 - (15.298915, 112.729985), (3.140520, 101.691547), (3.138727, 101.724270), (6.227146, 104.535649), 
UserID: 561800098 - (24.949537, 121.407795), (25.035975, 121.536583), (24.681692, 121.208912), 
UserID: 199723198 - (25.011244, 121.466641), (24.878729, 121.400447), (24.878369, 121.401515), 
UserID: 972563043 - (25.040246, 121.516483), (25.050168, 121.520272), (25.034118, 121.529287), (25.048115, 121.514319), 
UserID: 3636999 - (-37.813469, 144.985322), (-37.036994, 146.228337), (12.317363, 126.339063), (-9.060576, 39.566473), 
UserID: 638830569 - (25.043889, 121.550619), (24.073561, 121.437793), (44.840872, 35.491905), (50.765047, 11.707054), 
UserID: 36141993 - (22.306837, 114.178033), (22.275882, 114.200349), (23.211648, 116.549906), (22.309716, 114.174311), 
UserID: 562065162 - (-10.794394, 119.194468), (-5.597983, 108.100192), (-3.011980, 106.586745), (-4.675344, 107.109978), 
UserID: 211050078 - (42.688871, -54.379676), (39.357862, -99.817949), (29.935129, 81.650421), (22.475391, -3.125746), 
UserID: 899266462 - (13.772606, 100.719627), (13.671271, 100.650878), 
UserID: 342088061 - (24.834144, 121.079175), (24.923992, 121.178738), (24.865357, 121.021340), (24.864047, 121.017462), 
UserID: 222936099 - (22.291333, 114.203574), (22.282900, 114.171574), (22.361811, 114.132934), 
UserID: 621878877 - (1.303199, 103.868421), (1.262556, 106.571401), (1.293457, 103.854267), (1.307105, 103.889760), 
UserID: 195996587 - (1.110965, 101.258709), (1.893110, 101.124830), (-1.294324, 104.200973), (14.638851, 112.858604), 
UserID: 272047496 - (25.040347, 121.436944), (35.519008, 139.692121), (20.289379, 117.950149), (26.109185, 123.394769), 
UserID: 351444262 - (37.560821, 127.003754), (36.695562, 129.559204), (25.103237, 121.571217), (34.955698, 135.727663), 
UserID: 181723663 - (44.994589, -93.062989), (44.967911, -93.262300), (35.090838, 129.714572), (18.686862, 99.428084), 
UserID: 14895575 - (23.781583, 120.719362), (24.629760, 120.960592), (24.484471, 121.295268), (24.850056, 121.314652), 
UserID: 53993798 - (15.876261, 88.194043), (22.282073, 114.170444), (22.216700, 114.200000), 
UserID: 43483280 - (22.283987, 114.149212), (22.293429, 114.174994), (22.191610, 113.543144), (22.306184, 113.987790), 
UserID: 1124377 - (-8.536220, 116.061768), (5.372053, 100.297216), (17.159009, 113.053519), (5.378668, 100.303113), 
UserID: 3428861 - (14.536189, 120.981326), (14.603292, 121.037674), (14.595563, 121.043321), (25.040668, 121.528398), 
UserID: 328258779 - (24.240273, 119.263359), (34.781904, 27.037487), (25.052818, 121.520268), (25.047748, 121.530370), 
UserID: 379092 - (31.200294, 121.408384), (39.072120, 116.858832), (33.737280, 122.334395), (31.208334, 121.493350), 
UserID: 203489 - (23.029738, 121.219286), (24.862562, 121.530784), (25.026616, 121.574831), (23.993156, 120.428283), 
UserID: 315595374 - (24.800995, 121.309604), (24.226819, 121.636380), (25.020543, 121.357490), (24.358939, 121.099926), 
UserID: 415057778 - (25.038128, 121.521284), (25.042003, 121.517159), (25.023155, 121.447284), (24.581432, 120.989585), 
UserID: 634841266 - (25.061177, 121.656610), (24.983521, 121.643491), 
UserID: 402728561 - (25.027536, 121.553511), (29.279739, 128.837103), (25.020475, 121.552906), (25.033160, 121.562166), 
UserID: 176337780 - (59.331981, 18.077034), (25.028779, 121.545709), (24.990409, 121.538657), (25.024073, 121.540634), 
UserID: 25839984 - (25.041079, 121.550825), (25.043156, 121.546287), (25.037490, 121.551234), (25.044715, 121.559776), 
UserID: 240082073 - (25.031021, 121.541798), (25.039048, 121.553659), (25.046473, 121.558470), (24.979055, 121.580895), 
UserID: 312072797 - (44.866229, -110.279598), (44.890472, -110.389961), (25.061121, 121.467006), (25.047359, 121.455782), 
UserID: 219088483 - (24.591070, 121.086677), (24.153603, 120.674193), (24.367877, 120.853902), 
UserID: 462666 - (45.519908, -122.663227), (30.330679, 120.256732), (25.081975, 121.581463), (24.997414, 121.459612), 
UserID: 176651576 - (-3.222759, -20.485448), (-34.832422, 149.604212), (-16.960771, 142.590660), (-33.866999, 151.201503), 
UserID: 515933010 - (25.054004, 121.507605), (25.057407, 121.494157), (25.002364, 121.558187), (25.049549, 121.492188), 
UserID: 49557874 - (35.818870, 138.426150), (33.542255, 136.728768), (35.380355, 139.729357), (35.260230, 139.717953), 
UserID: 182054054 - (25.034071, 121.486889), (25.037384, 121.467561), (25.035685, 121.480413), (30.717655, 132.384524), 
UserID: 3220488 - (-21.347155, 128.128880), (-37.417987, 145.585206), (-37.816815, 144.953163), (-36.780741, 145.763440), 
UserID: 35303386 - (3.580138, 102.547892), (2.827383, 101.917815), (2.998826, 101.733995), (8.448473, 101.112743), 
UserID: 1039744475 - (23.843394, 90.503482), (22.289084, 114.164323), 
UserID: 3063178 - (34.345605, 26.811521), (32.774166, 76.185880), (29.998056, 53.343737), (23.945702, 119.350280), 
UserID: 230441795 - (14.568715, 121.003110), (14.593848, 121.100876), 
UserID: 1111163 - (42.399654, -62.905237), (41.730682, -71.353426), (40.443607, -95.623342), (23.558670, 117.765659), 
UserID: 500711088 - (25.028419, 121.519134), (25.030358, 121.522556), (25.032102, 121.552253), (25.026156, 121.518320), 
UserID: 249384884 - (13.737310, 100.591986), (13.740976, 100.538909), (23.846091, 121.368169), (13.386549, 100.351429), 
UserID: 27953771 - (14.555850, 121.021123), (14.590363, 121.031565), (18.953861, 121.113101), (16.116147, 119.638360), 
UserID: 4922892 - (22.281272, 114.177244), (22.297317, 114.203259), (24.478268, 120.076538), (22.277319, 114.168983), 
UserID: 1433970 - (-22.503959, 141.323595), (-36.540534, 158.444403), 
UserID: 670362651 - (34.782806, 112.989822), (26.917935, 109.600082), (23.207727, 116.990817), (30.093364, 113.359552), 
UserID: 287821776 - (-31.635463, 142.725300), (8.654628, 121.550439), (-1.257066, 85.125806), (52.324107, -0.934578), 
UserID: 177175 - (24.443086, 121.539495), (25.034034, 121.482739), (25.043335, 121.561164), (24.216342, 121.013391), 
UserID: 245976982 - (24.578979, 121.543244), (31.693681, 132.849564), (24.693526, 121.318195), (25.029289, 121.515591), 
UserID: 903090 - (13.727962, 100.581296), (24.664372, 120.135221), (24.913341, 120.958333), (13.735666, 100.582563), 
UserID: 38868510 - (43.702779, -79.289106), (43.872607, -79.319868), (43.718615, -79.276109), (30.357053, 60.549884), 
UserID: 26589271 - (25.035411, 121.520140), 
UserID: 19369685 - (42.493096, 3.140317), (7.748553, 105.030253), (33.865747, -117.992920), 
UserID: 14350579 - (16.248306, 80.814780), (38.991353, -52.265973), (13.165846, 100.498964), (24.893929, 121.409915), 
UserID: 1029290868 - (-6.830235, 107.629956), (-6.174303, 106.888394), (-6.172725, 106.808889), (-6.166789, 106.891894), 
UserID: 291844169 - (14.569879, 121.005255), (14.580272, 121.029291), (14.564446, 121.005699), (14.340240, 121.011207), 
UserID: 37001295 - (28.168247, 113.002531), (28.076507, 113.025035), (29.786775, 106.662320), (28.139325, 113.027847), 
UserID: 252775080 - (25.066791, 121.559675), (23.142159, 125.419200), (25.056308, 121.537366), 
UserID: 247504078 - (25.043356, 121.524068), (25.072886, 121.458799), (25.014263, 121.472954), (24.978765, 121.425198), 
UserID: 37940193 - (35.925290, 138.409464), (36.168356, 139.084525), (35.915639, 139.488470), (27.089790, 125.042598), 
UserID: 208478260 - (38.975098, 120.829492), (37.512579, 127.028161), (37.557257, 126.976253), (37.506503, 127.030748), 
UserID: 35341868 - (25.039103, 121.524103), (25.031140, 121.548719), (24.931723, 121.238882), (25.006780, 121.530348), 
UserID: 488685582 - (24.879744, 121.056183), (34.955312, 79.415723), (37.932341, -4.656925), (24.980562, 121.353269), 
UserID: 269852163 - (25.008597, 121.511729), (24.893915, 121.473113), (25.031746, 121.525829), (25.020996, 121.521216), 
UserID: 190808268 - (29.891434, 72.586108), (25.032486, 121.523531), (25.031621, 121.537097), (25.034081, 121.545752), 
UserID: 4669587 - (33.366625, -6.031114), (9.512841, 100.053731), (28.216898, 88.380334), (22.736135, 93.274260), 
UserID: 290143487 - (25.038693, 121.526636), (24.837403, 121.343936), (25.044159, 121.530866), (26.213897, 123.551376), 
UserID: 2498379 - (13.772653, 100.540461), (13.777128, 100.574640), (13.150102, 101.355354), (13.507314, 100.860247), 
UserID: 532441471 - (25.058785, 121.514546), (25.046525, 121.521123), (24.675844, 121.261577), (25.050896, 121.508240), 
UserID: 22178692 - (13.949061, 100.384068), (14.127516, 100.289477), (19.111424, 106.839452), (14.015178, 100.458837), 
UserID: 233096593 - (17.769417, 112.531526), (23.570794, 118.763531), (25.069499, 121.533605), (26.333909, 122.069556), 
UserID: 330547238 - (43.464239, 11.140145), 
UserID: 790833576 - (25.044302, 121.568018), (25.049057, 121.550301), (25.056506, 121.570956), (25.041268, 121.633963), 
UserID: 17957289 - (49.004998, -54.984081), (39.883989, -78.534250), (27.013612, 122.427582), (39.444225, -76.108202), 
UserID: 10471684 - (13.730228, 100.774425), (13.321439, 100.280701), (14.102248, 100.614760), (21.629029, 105.320931), 
UserID: 283602782 - (13.888079, 100.585372), (13.780963, 100.607660), (13.647778, 100.617202), 
UserID: 761206276 - (24.050976, 120.676151), 
UserID: 3492563 - (30.373737, -19.610013), (28.469967, 25.695295), (32.836972, -110.512566), (38.587063, -82.008517), 
UserID: 55250568 - (12.444744, 100.487094), (13.689869, 100.533796), (24.592212, 121.262498), 
UserID: 27370566 - (34.706358, 135.646244), (34.796371, 137.723466), (35.049707, 136.982505), (35.651671, 139.694415), 
UserID: 53088833 - (49.250712, -123.166507), (7.062903, 99.201963), (41.545668, -80.695447), (31.881642, -1.042081), 
UserID: 193514068 - (24.992145, 121.530062), (22.669432, 120.302829), (31.021750, 121.426611), 
UserID: 476052763 - (24.896673, 121.450179), (24.758143, 121.755007), (24.605176, 121.130676), (24.932600, 121.452424), 
UserID: 49378177 - (23.486012, 120.490704), (23.722172, 120.233823), (23.588996, 120.319561), (23.702603, 120.539105), 
UserID: 44105492 - (13.748618, 100.535552), (13.986706, 99.817105), (25.484958, 7.949720), (13.789593, 100.432048), 
UserID: 13689440 - (1.327536, 103.810526), (1.317341, 103.814420), (19.373769, 117.164827), (1.315353, 103.812608), 
UserID: 279292594 - (36.832689, 119.502020), (39.903613, 116.245185), (39.977616, 116.414660), (39.910867, 116.275180), 
UserID: 179101661 - (45.526687, -73.601583), (42.666456, -73.827099), (45.412599, -72.897284), (38.518234, 51.299239), 
UserID: 5027296 - (13.702228, 100.537463), (13.576201, 100.605244), (19.107233, 110.949223), (13.612908, 100.440704), 
UserID: 368469964 - (36.202526, 138.348016), (34.949140, 137.300939), (35.639358, 139.481053), (27.311811, 124.930497), 
UserID: 35961264 - (24.979745, 121.277396), (24.840647, 121.218363), (24.452545, 120.955201), (24.973982, 121.213670), 
UserID: 290675462 - (24.280291, 120.944957), (25.084082, 121.517937), (25.095838, 121.521210), (24.921197, 121.422648), 
UserID: 1062599 - (14.126449, 121.313360), (14.549435, 121.042028), (15.597000, 121.080237), (18.845043, 120.972781), 
UserID: 371175 - (20.030446, 113.589730), (14.553307, 121.046653), (40.693035, 94.652164), (85.526271, 50.054644), 
UserID: 1001073288 - (28.417472, 119.705943), (24.118408, 120.646623), 
UserID: 301986384 - (24.940195, 121.426941), (24.835662, 121.662881), (24.757621, 121.756646), 
UserID: 576492579 - (40.792239, 104.567714), (39.772519, 116.089930), (25.859041, 117.075943), (34.091006, 119.435358), 
UserID: 922892 - (1.304277, 103.874043), (1.381774, 103.970454), (1.401652, 103.793654), (1.323724, 103.832596), 
UserID: 313142867 - (22.760186, 120.322522), (23.671865, 120.784834), (22.969990, 120.322672), (24.635345, 121.548119), 
UserID: 419929894 - (24.979037, 121.294352), (24.950649, 121.232045), (24.950009, 121.228594), (24.994846, 121.398872), 
UserID: 19891662 - (37.507285, 127.029903), (36.714510, 126.923661), (36.332469, 114.241880), (35.064651, 124.185293), 
UserID: 232234975 - (41.673796, -87.916112), (44.587904, -93.512116), (43.075039, -69.021315), 
UserID: 402801497 - (36.985763, 117.439807), (30.450491, 104.571814), (39.412041, 116.925531), (39.312359, 117.004980), 
UserID: 1230093 - (24.770696, 121.339664), (25.020128, 121.521283), (25.018247, 121.478897), (24.055297, 120.987479), 
UserID: 268323568 - (13.811790, 100.576501), (13.756248, 100.566876), (13.820513, 100.573891), (13.795000, 100.575608), 
UserID: 43627896 - (25.026861, 121.570363), (25.059761, 121.563443), (25.065226, 121.573672), (25.074470, 121.583502), 
UserID: 201986550 - (35.309534, 62.718029), (36.938264, 61.937299), (25.016070, 121.538545), 
UserID: 328604092 - (22.777424, 120.302875), (22.636225, 120.298435), (22.734544, 120.300861), (22.828004, 120.273126), 
UserID: 24843770 - (-6.461200, 107.375928), (-2.623806, 107.793257), (14.695295, 123.230488), (-5.895831, 107.379984), 
UserID: 212417774 - (25.048889, 121.514328), 
UserID: 704851893 - (19.425731, 109.645893), (22.801411, 113.638422), (23.089281, 113.239300), 
UserID: 447398988 - (37.452400, 127.056506), (37.468533, 127.056822), (36.155403, 127.119043), (37.473355, 127.042654), 
UserID: 1037061887 - (31.186257, 121.495777), (31.186386, 121.440056), (31.202906, 121.519370), (31.166319, 121.529160), 
UserID: 2866260 - (25.031593, 121.525014), 
UserID: 297920560 - (24.026664, 113.292341), (24.045560, 118.621320), (41.772662, 123.428652), 
UserID: 331111656 - (24.905989, 121.180436), (25.040182, 121.518013), 
UserID: 344451292 - (24.477395, 121.042095), (25.721408, 123.052380), (24.805443, 121.284460), (24.323845, 121.163710), 
UserID: 346382885 - (31.194891, 121.422257), (31.164930, 121.394141), (31.199975, 121.460414), (31.189172, 121.433083), 
UserID: 488169871 - (25.059774, 121.543262), (24.992805, 121.481464), (25.004122, 121.488762), (25.029996, 121.463318), 
UserID: 144891740 - (16.022670, 100.078195), (15.148724, 100.770174), (13.797828, 100.498537), (53.962896, 0.215213), 
UserID: 202256562 - (31.011123, 119.268843), (33.017923, 121.238346), (31.199837, 121.435053), (33.779387, 112.061971), 
UserID: 15226837 - (38.080745, -111.049084), (30.891797, 106.364809), (36.536753, -116.051919), (36.199145, -115.222554), 
UserID: 244863336 - (37.598140, -42.838183), (37.868879, -35.122339), 
UserID: 25412739 - (-6.790185, 107.462616), (-1.650682, 110.021025), (-2.632457, 116.192556), (-6.892596, 107.616986), 
UserID: 3276837 - (24.986781, 121.537454), (25.040002, 121.495973), (23.901078, 121.331696), (24.597700, 121.367156), 
UserID: 1155459847 - (25.048740, 121.538436), (24.590692, 121.204790), (24.958491, 121.413985), 
UserID: 174661273 - (-27.994148, 153.426461), (-27.995096, 153.427207), (23.127712, 116.299636), (13.367162, 103.844916), 
UserID: 182697776 - (26.350287, 113.034481), (22.547302, 113.987180), (20.936230, 115.341599), (22.556556, 113.963956), 
UserID: 196547280 - (49.152374, -122.676689), (49.181150, -122.797575), (28.572983, 40.677132), (49.555936, -122.805299), 
UserID: 216816130 - (25.105086, 121.524918), (25.061650, 121.554015), (25.055453, 121.545725), (25.049428, 121.540805), 
UserID: 23047767 - (11.357118, -85.738076), (-8.865854, 36.212401), (-35.860742, 148.092390), (-21.316095, 130.297392), 
UserID: 46989431 - (16.358024, 104.758811), (40.387218, -74.232694), (37.051629, -76.468635), (37.300347, -76.719765), 
UserID: 399989059 - (26.226322, 121.033464), (30.015133, 121.181445), (30.460419, 121.379482), 
UserID: 5382836 - (16.685766, 106.782024), (6.101148, 104.260799), (4.194230, 103.644745), (1.812932, 103.425784), 
UserID: 317465 - (24.741883, 121.235932), (29.166127, 126.864433), (24.259892, 120.992616), (16.031645, 122.640865), 
UserID: 696721660 - (22.535591, 114.001613), (22.548475, 114.022171), (22.549791, 113.968658), (23.683654, 121.005140), 
UserID: 396664368 - (33.962520, -118.279696), (34.053312, -118.247519), (45.539589, -122.244387), (28.167771, 124.992246), 
UserID: 186318758 - (35.723726, 68.445438), (52.514801, 13.419191), (22.352312, 114.219518), (22.326271, 114.196511), 
UserID: 17508835 - (22.901640, 113.311414), (23.051824, 113.320718), (23.112913, 113.338879), (23.055562, 113.316212), 
UserID: 672409594 - (-6.604949, 108.030629), (22.706687, 120.409185), (23.016742, 120.252361), (23.035491, 120.254143), 
UserID: 231185161 - (23.993787, 120.292693), (24.211760, 120.694980), (22.660660, 120.313150), (22.651813, 120.309641), 
UserID: 315271 - (35.154480, 136.978958), (35.157893, 136.907650), (35.193736, 136.909289), (25.026812, 121.530857), 
UserID: 987509772 - (24.159100, 120.693947), (22.616203, 120.279499), (25.083393, 121.484579), (25.067849, 121.497773), 
UserID: 496452966 - (25.021186, 121.484970), (25.027820, 121.499632), (29.219717, 124.000619), (25.035411, 121.520140), 
UserID: 521779346 - (25.026370, 121.555815), (25.042546, 121.540879), (25.006969, 121.528667), (24.867899, 121.505424), 
UserID: 20169 - (52.513607, 13.409121), (52.489546, 12.134313), (52.511208, 13.395323), (25.045051, 121.541404), 
UserID: 577698034 - (31.913531, 116.539816), (23.615234, 120.839336), (24.817453, 121.487123), 
UserID: 522874 - (31.228002, 121.502822), (31.225160, 121.482267), (22.765916, 120.897474), (31.120490, 121.375898), 
UserID: 290506441 - (23.992805, 121.601439), 
UserID: 199685041 - (24.955301, 121.413183), (24.946991, 121.413009), (24.239003, 120.754202), (24.409660, 120.929320), 
UserID: 18215733 - (25.035402, 121.496413), (25.032793, 121.517646), (25.036816, 121.442948), (24.933191, 121.404221), 
UserID: 1104481 - (23.424160, 99.716180), (17.464803, 90.378959), (14.892483, 102.670813), (18.583404, 92.443574), 
UserID: 45004121 - (25.080486, 121.546034), (33.744119, -117.984055), (37.778390, -122.435794), (25.065093, 121.466955), 
UserID: 329604435 - (23.000175, 120.227388), (22.996447, 120.234390), (22.995172, 120.225542), (24.604766, 121.080763), 
UserID: 561756995 - (29.734627, 129.638312), (24.950981, 121.364646), (24.986270, 121.450162), (24.937418, 121.378271), 
UserID: 853668 - (33.485591, -95.889361), (43.841158, -78.802717), (13.415036, 108.248608), (7.909993, 102.190352), 
UserID: 548996546 - (7.196462, 107.256863), (30.941177, 120.756818), (30.166956, 120.241323), (34.669433, 135.957409), 
UserID: 6571883 - (29.873402, 128.528485), (17.607271, 116.150101), (24.625945, 121.257059), (26.111517, 82.698167), 
UserID: 14243241 - (35.414213, 136.263615), (33.278034, 131.539728), (35.660518, 139.724908), (33.299526, 131.500504), 
UserID: 174402204 - (41.819911, 19.431267), (50.667686, 6.869899), (46.485529, 27.917513), (-34.538472, 150.186324), 
UserID: 3384888 - (45.276098, -70.087030), (28.018082, 106.617130), (46.162724, -72.389872), 
UserID: 372005793 - (24.139283, 120.682411), (24.364805, 120.824424), (24.350423, 120.819577), 
UserID: 699769841 - (39.393888, 98.038810), (38.268510, 92.170516), (35.564155, 139.277268), (30.302058, 129.566495), 
UserID: 279752371 - (25.042195, 121.414752), (24.264027, 121.423590), (25.066095, 121.477385), (24.712840, 121.174344), 
UserID: 215034443 - (19.740016, 117.036001), (24.542203, 121.008180), (13.100340, 111.612913), (24.219172, 120.703084), 
UserID: 698823649 - (24.862734, 121.184947), (23.413325, 121.023784), (25.016934, 121.433056), (24.909509, 121.285592), 
UserID: 1043163376 - (13.388545, 101.003524), (16.084876, 106.332886), 
UserID: 1046447436 - (39.882881, -53.316970), (41.133567, -73.466125), (40.962022, -73.678949), 
UserID: 340776 - (24.791916, 121.005389), (32.362509, 134.025679), (24.811258, 121.040678), (24.835156, 121.054109), 
UserID: 1528364 - (41.881606, -87.629389), (33.775492, -84.299380), (33.869808, -84.389943), (38.413785, -77.439325), 
UserID: 415841898 - (33.868027, 120.614566), (34.989027, 120.562056), (39.571980, 116.827654), (10.615553, 104.180556), 
UserID: 346180149 - (34.010921, 134.051318), (35.793024, 137.114376), (35.666883, 139.704726), (36.039659, 137.244729), 
UserID: 924238368 - (25.053271, 121.534995), (25.051284, 121.530434), 
UserID: 177515334 - (25.507742, 120.929964), (28.150289, 97.655003), (24.405346, 120.693557), (25.019756, 121.465906), 
UserID: 522972435 - (24.684215, 121.544824), (24.452006, 121.563731), (24.711090, 121.410959), (24.932396, 121.351746), 
UserID: 613583841 - (24.455016, 120.890087), (24.825594, 121.256897), 
UserID: 319432535 - (23.963476, 120.917924), (23.755563, 120.635321), (22.784700, 120.799594), (24.356321, 121.036828), 
UserID: 226999188 - (13.850783, 100.594924), (24.982985, 121.334145), (23.252857, 120.599780), (22.427739, 117.805127), 
UserID: 258225373 - (24.738151, 121.370766), (25.098887, 121.550180), (24.942974, 121.538630), (25.057337, 121.527835), 
UserID: 23070040 - (7.848540, 82.980802), (9.313979, 68.474439), (7.612129, 92.426725), (25.214264, 55.338699), 
UserID: 967330697 - (25.040091, 121.566190), (25.033922, 121.564453), (25.042635, 121.550550), 
UserID: 54791571 - (24.105768, 121.100434), (25.056281, 121.597349), (25.069700, 121.593998), (25.052162, 121.550738), 
UserID: 304671196 - (44.318376, 35.773713), (18.292091, 115.780332), (24.730211, 121.189808), (24.873506, 121.545368), 
UserID: 298620574 - (24.770678, 121.232130), (25.055273, 121.512231), (22.147910, 113.565244), (25.066977, 121.471335), 
UserID: 455796 - (24.433932, 120.973151), (23.824550, 119.306258), (29.820853, 126.562686), (21.690144, 115.716880), 
UserID: 511489332 - (25.471911, 120.147231), (31.037477, 118.802182), 
UserID: 256520139 - (31.337568, -0.503003), (25.030156, 121.535225), (25.042998, 121.498837), (24.977637, 121.635522), 
UserID: 45869174 - (23.693422, 121.110659), (24.571698, 121.595021), (24.522124, 121.384657), (24.980832, 121.660853), 
UserID: 7547247 - (26.874492, 36.088074), (47.916733, 8.103651), (24.463020, 121.329604), (-32.034755, 115.807016), 
UserID: 34974876 - (25.040403, 121.563800), (23.859164, 120.993267), (29.304657, 128.833971), (25.049690, 121.547297), 
UserID: 414083051 - (24.930913, 121.434323), (25.084540, 121.547413), (25.070622, 121.548554), (24.995117, 121.447233), 
UserID: 351433663 - (23.735304, 120.534464), (23.559139, 120.475347), (23.598740, 120.431516), (23.681847, 120.506447), 
UserID: 604094498 - (24.576001, 121.051680), (23.493331, 120.857594), (23.941249, 120.911074), (24.175287, 120.961909), 
UserID: 660962339 - (25.088618, 121.508197), (25.041058, 121.547026), (24.999407, 121.417904), (25.084057, 121.546593), 
UserID: 306768685 - (25.032190, 121.451532), (24.992944, 121.275836), (25.054435, 121.356187), (23.005505, 120.239363), 
UserID: 49361087 - (22.549579, 114.100636), (22.605004, 114.018573), (22.421996, 118.110622), (22.445260, 114.076268), 
UserID: 637577358 - (25.040319, 121.527345), (25.040610, 121.517680), (25.035892, 121.542585), (25.038141, 121.547024), 
UserID: 17509697 - (25.040727, 121.558961), (25.044873, 121.554778), (25.056252, 121.546999), (25.033805, 121.464307), 
UserID: 13131356 - (37.626799, 126.882674), (37.652363, 126.866802), (37.627430, 126.897653), (33.342166, 126.350087), 
UserID: 311838283 - (24.112730, 121.255636), (25.097461, 121.534454), (25.090617, 121.528727), (23.876420, 120.909712), 
UserID: 2068354 - (63.980764, -148.810625), (31.195000, 66.438273), (22.790414, 120.319449), (22.873961, 120.227165), 
UserID: 295324934 - (24.441237, 121.107371), (25.026707, 121.438302), (24.015340, 120.838341), 
UserID: 5979297 - (13.826287, 100.511604), (13.785362, 100.568573), (13.865629, 102.587142), (18.290762, 108.952524), 
UserID: 402757940 - (25.051680, 121.552453), (36.294892, 126.378486), (24.998971, 121.599786), (25.066310, 121.541591), 
UserID: 345511269 - (24.218645, 120.904332), (24.955617, 121.410701), (23.554174, 120.484485), (24.115270, 120.860039), 
UserID: 756097 - (7.326337, 99.261354), (3.166670, 101.700000), (16.783871, 96.155123), (3.756632, 101.620123), 
UserID: 888970 - (1.304852, 103.794877), (1.322318, 103.760703), (1.315577, 103.761116), (9.672018, 109.071029), 
UserID: 17894 - (24.868372, 121.522116), (25.050841, 121.545131), (25.039144, 121.550843), 
UserID: 239588864 - (56.764071, 60.568284), (56.814356, 60.686594), 
UserID: 1373256 - (23.117300, 108.571940), (24.885117, 109.393982), (23.132528, 110.246985), (23.057896, 111.012513), 
UserID: 2329343 - (29.392202, 119.752319), (18.782953, 98.987345), (31.354981, 119.667264), (28.727217, 116.952112), 
UserID: 15673972 - (22.815757, 108.338902), (22.812375, 108.319946), (22.813405, 108.319107), (22.806663, 108.336833), 
UserID: 8378840 - (23.806360, 121.225635), (25.046308, 121.563853), (22.877786, 121.015386), (25.037540, 121.703114), 
UserID: 1052889167 - (25.064656, 121.505974), 
UserID: 206143765 - (51.516480, 4.698231), (26.550663, 107.822216), (24.774489, 121.374854), (25.020740, 121.556732), 
UserID: 313401531 - (35.682918, 139.482915), (35.629927, 139.244021), (37.039779, 130.028224), (28.621584, 127.528827), 
UserID: 291194973 - (15.177356, 114.380362), (1.702469, 103.659136), (1.302757, 103.836165), 
UserID: 259728389 - (43.175263, -120.910758), (49.278472, -123.082000), (49.281395, -123.089168), (49.275546, -123.108646), 
UserID: 240414650 - (25.070339, 121.547673), (25.039524, 121.550960), (25.053305, 121.557774), (24.976224, 121.468164), 
UserID: 723107136 - (24.622180, 121.507169), (24.872774, 121.495663), (23.641588, 119.282514), (25.043016, 121.535321), 
UserID: 1180908865 - (25.035411, 121.520140), 
UserID: 185669088 - (19.150633, -96.110108), (16.628142, -75.119473), (27.175766, 125.145220), (15.737000, 108.879124), 
UserID: 505338759 - (23.173872, 120.953273), (24.777247, 121.712433), (25.043674, 121.562038), 
UserID: 29803296 - (3.123219, 101.676693), (2.850839, 103.420563), (11.830947, 109.589024), (3.125256, 101.654893), 
UserID: 1037679287 - (24.111964, 120.769228), (23.777197, 120.751841), 
UserID: 300127749 - (20.913970, 123.529628), (21.435813, 122.901561), (10.111805, 109.006237), 
UserID: 2677940 - (6.628673, 99.369588), (1.446732, 103.608547), (1.319532, 103.807638), (1.329257, 103.802527), 
UserID: 301099992 - (25.041076, 121.494128), (25.035898, 121.427892), (25.038331, 121.483751), 
UserID: 340723651 - (24.114748, 121.063299), (24.177973, 120.691014), (24.352069, 120.856549), (24.180415, 120.685418), 
UserID: 1244549 - (24.075715, 120.769495), (24.001370, 120.711154), (24.392937, 121.005354), (25.017487, 121.546878), 
UserID: 211485764 - (25.045435, 121.577249), (25.058057, 121.606154), (25.059621, 121.623630), (25.068428, 121.612151), 
UserID: 231994567 - (13.733368, 100.536251), (13.719754, 100.457859), (13.739006, 100.530731), (20.530908, 113.135611), 
UserID: 1017477766 - (25.008051, 121.508471), (25.010285, 121.517175), 
UserID: 14647092 - (25.026869, 121.325561), (24.891771, 121.236658), (24.967487, 121.399517), 
UserID: 11580685 - (35.639795, 139.857561), 
UserID: 8143288 - (-9.419115, 110.738557), (-9.358919, 110.659762), (-3.103635, 113.416722), (-6.228412, 106.840780), 
UserID: 310091867 - (33.669492, -4.507903), (24.665399, 121.408664), (20.547907, 119.438136), (15.695570, 117.097008), 
UserID: 1154362530 - (25.770232, 117.141363), (33.802334, 119.969476), (22.335302, 114.175752), 
